x-axis,1,2,3
second,Volt,Volt,Volt
-10.00000E-03,+218.75000E-03,+6.24999E-03,+34.12497E-03
-9.98000E-03,+218.75000E-03,+21.87499E-03,+18.49997E-03
-9.96000E-03,+375.00000E-03,+6.24999E-03,+34.12497E-03
-9.94000E-03,+375.00000E-03,-9.37501E-03,+49.74997E-03
-9.92000E-03,+218.75000E-03,-9.37501E-03,+18.49997E-03
-9.90000E-03,+218.75000E-03,-9.37501E-03,+18.49997E-03
-9.88000E-03,+218.75000E-03,-9.37501E-03,+34.12497E-03
-9.86000E-03,+375.00000E-03,-9.37501E-03,+34.12497E-03
-9.84000E-03,+375.00000E-03,+6.24999E-03,+34.12497E-03
-9.82000E-03,+375.00000E-03,+21.87499E-03,+34.12497E-03
-9.80000E-03,+218.75000E-03,-25.00001E-03,+18.49997E-03
-9.78000E-03,+375.00000E-03,-9.37501E-03,+49.74997E-03
-9.76000E-03,+218.75000E-03,+6.24999E-03,+49.74997E-03
-9.74000E-03,+375.00000E-03,-9.37501E-03,+2.87497E-03
-9.72000E-03,+375.00000E-03,+6.24999E-03,+34.12497E-03
-9.70000E-03,+218.75000E-03,+6.24999E-03,+49.74997E-03
-9.68000E-03,+218.75000E-03,+6.24999E-03,+34.12497E-03
-9.66000E-03,+218.75000E-03,-9.37501E-03,+34.12497E-03
-9.64000E-03,+375.00000E-03,+6.24999E-03,+18.49997E-03
-9.62000E-03,+375.00000E-03,+6.24999E-03,+49.74997E-03
-9.60000E-03,+218.75000E-03,-9.37501E-03,+18.49997E-03
-9.58000E-03,+62.50000E-03,+6.24999E-03,+18.49997E-03
-9.56000E-03,+375.00000E-03,+21.87499E-03,+49.74997E-03
-9.54000E-03,+218.75000E-03,+6.24999E-03,+18.49997E-03
-9.52000E-03,+218.75000E-03,+6.24999E-03,+34.12497E-03
-9.50000E-03,+218.75000E-03,-9.37501E-03,+18.49997E-03
-9.48000E-03,+218.75000E-03,+6.24999E-03,+18.49997E-03
-9.46000E-03,+375.00000E-03,+6.24999E-03,+34.12497E-03
-9.44000E-03,+218.75000E-03,-9.37501E-03,+18.49997E-03
-9.42000E-03,+218.75000E-03,+6.24999E-03,+34.12497E-03
-9.40000E-03,+375.00000E-03,+6.24999E-03,+49.74997E-03
-9.38000E-03,+375.00000E-03,+6.24999E-03,+34.12497E-03
-9.36000E-03,+62.50000E-03,+6.24999E-03,+34.12497E-03
-9.34000E-03,+375.00000E-03,+21.87499E-03,+34.12497E-03
-9.32000E-03,+375.00000E-03,-25.00001E-03,+34.12497E-03
-9.30000E-03,+375.00000E-03,+6.24999E-03,+34.12497E-03
-9.28000E-03,+218.75000E-03,+6.24999E-03,+18.49997E-03
-9.26000E-03,+218.75000E-03,-9.37501E-03,+34.12497E-03
-9.24000E-03,+218.75000E-03,-25.00001E-03,+34.12497E-03
-9.22000E-03,+375.00000E-03,+6.24999E-03,+49.74997E-03
-9.20000E-03,+62.50000E-03,-25.00001E-03,+18.49997E-03
-9.18000E-03,+531.25000E-03,-9.37501E-03,+49.74997E-03
-9.16000E-03,+218.75000E-03,+21.87499E-03,+65.37497E-03
-9.14000E-03,+218.75000E-03,+6.24999E-03,+49.74997E-03
-9.12000E-03,+218.75000E-03,-9.37501E-03,+18.49997E-03
-9.10000E-03,+218.75000E-03,-9.37501E-03,+34.12497E-03
-9.08000E-03,+375.00000E-03,+6.24999E-03,+34.12497E-03
-9.06000E-03,+218.75000E-03,+6.24999E-03,+18.49997E-03
-9.04000E-03,+375.00000E-03,+6.24999E-03,+49.74997E-03
-9.02000E-03,+218.75000E-03,-9.37501E-03,+18.49997E-03
-9.00000E-03,+218.75000E-03,+6.24999E-03,+2.87497E-03
-8.98000E-03,+375.00000E-03,+6.24999E-03,+34.12497E-03
-8.96000E-03,+375.00000E-03,-25.00001E-03,+34.12497E-03
-8.94000E-03,+375.00000E-03,+6.24999E-03,+34.12497E-03
-8.92000E-03,+218.75000E-03,+21.87499E-03,+49.74997E-03
-8.90000E-03,+218.75000E-03,+21.87499E-03,+2.87497E-03
-8.88000E-03,+218.75000E-03,+6.24999E-03,+34.12497E-03
-8.86000E-03,+375.00000E-03,-9.37501E-03,+34.12497E-03
-8.84000E-03,+218.75000E-03,+6.24999E-03,+49.74997E-03
-8.82000E-03,+375.00000E-03,+6.24999E-03,+34.12497E-03
-8.80000E-03,+375.00000E-03,+21.87499E-03,+18.49997E-03
-8.78000E-03,+375.00000E-03,-9.37501E-03,+34.12497E-03
-8.76000E-03,+375.00000E-03,-9.37501E-03,+49.74997E-03
-8.74000E-03,+375.00000E-03,+6.24999E-03,+18.49997E-03
-8.72000E-03,+218.75000E-03,+6.24999E-03,+34.12497E-03
-8.70000E-03,+375.00000E-03,+6.24999E-03,+18.49997E-03
-8.68000E-03,+218.75000E-03,+6.24999E-03,+18.49997E-03
-8.66000E-03,+218.75000E-03,+6.24999E-03,+18.49997E-03
-8.64000E-03,+218.75000E-03,+21.87499E-03,+18.49997E-03
-8.62000E-03,+375.00000E-03,+6.24999E-03,+34.12497E-03
-8.60000E-03,+375.00000E-03,-9.37501E-03,+34.12497E-03
-8.58000E-03,+375.00000E-03,+6.24999E-03,+18.49997E-03
-8.56000E-03,+218.75000E-03,+21.87499E-03,+18.49997E-03
-8.54000E-03,+62.50000E-03,+6.24999E-03,+18.49997E-03
-8.52000E-03,+218.75000E-03,-9.37501E-03,+34.12497E-03
-8.50000E-03,+218.75000E-03,-9.37501E-03,+34.12497E-03
-8.48000E-03,+218.75000E-03,+6.24999E-03,+34.12497E-03
-8.46000E-03,+62.50000E-03,+6.24999E-03,+34.12497E-03
-8.44000E-03,+218.75000E-03,+6.24999E-03,+34.12497E-03
-8.42000E-03,+218.75000E-03,+6.24999E-03,+34.12497E-03
-8.40000E-03,+375.00000E-03,+21.87499E-03,-12.75003E-03
-8.38000E-03,+375.00000E-03,+6.24999E-03,+18.49997E-03
-8.36000E-03,+218.75000E-03,-9.37501E-03,+34.12497E-03
-8.34000E-03,+218.75000E-03,+6.24999E-03,+34.12497E-03
-8.32000E-03,+218.75000E-03,-9.37501E-03,+34.12497E-03
-8.30000E-03,+218.75000E-03,+21.87499E-03,+18.49997E-03
-8.28000E-03,+375.00000E-03,+6.24999E-03,+34.12497E-03
-8.26000E-03,+375.00000E-03,-9.37501E-03,+49.74997E-03
-8.24000E-03,+375.00000E-03,-9.37501E-03,+49.74997E-03
-8.22000E-03,+218.75000E-03,+6.24999E-03,+18.49997E-03
-8.20000E-03,+218.75000E-03,-9.37501E-03,+49.74997E-03
-8.18000E-03,+218.75000E-03,+6.24999E-03,+18.49997E-03
-8.16000E-03,+375.00000E-03,-9.37501E-03,+2.87497E-03
-8.14000E-03,+218.75000E-03,-25.00001E-03,+34.12497E-03
-8.12000E-03,+218.75000E-03,-9.37501E-03,+2.87497E-03
-8.10000E-03,+375.00000E-03,+6.24999E-03,+34.12497E-03
-8.08000E-03,+375.00000E-03,+6.24999E-03,+34.12497E-03
-8.06000E-03,+375.00000E-03,+21.87499E-03,+49.74997E-03
-8.04000E-03,+218.75000E-03,-9.37501E-03,+18.49997E-03
-8.02000E-03,+218.75000E-03,+6.24999E-03,+18.49997E-03
-8.00000E-03,+375.00000E-03,+6.24999E-03,+18.49997E-03
-7.98000E-03,+375.00000E-03,+6.24999E-03,+49.74997E-03
-7.96000E-03,+218.75000E-03,-9.37501E-03,+34.12497E-03
-7.94000E-03,+375.00000E-03,-9.37501E-03,+34.12497E-03
-7.92000E-03,+218.75000E-03,-9.37501E-03,+34.12497E-03
-7.90000E-03,+375.00000E-03,-25.00001E-03,+18.49997E-03
-7.88000E-03,+218.75000E-03,-9.37501E-03,+18.49997E-03
-7.86000E-03,+218.75000E-03,-25.00001E-03,+49.74997E-03
-7.84000E-03,+375.00000E-03,-25.00001E-03,+18.49997E-03
-7.82000E-03,+218.75000E-03,+21.87499E-03,+18.49997E-03
-7.80000E-03,+218.75000E-03,+6.24999E-03,+34.12497E-03
-7.78000E-03,+218.75000E-03,+21.87499E-03,+34.12497E-03
-7.76000E-03,+375.00000E-03,+6.24999E-03,+34.12497E-03
-7.74000E-03,+375.00000E-03,-9.37501E-03,+34.12497E-03
-7.72000E-03,+375.00000E-03,+21.87499E-03,+34.12497E-03
-7.70000E-03,+218.75000E-03,+6.24999E-03,+2.87497E-03
-7.68000E-03,+375.00000E-03,+6.24999E-03,+18.49997E-03
-7.66000E-03,+375.00000E-03,+6.24999E-03,+34.12497E-03
-7.64000E-03,+218.75000E-03,+6.24999E-03,+49.74997E-03
-7.62000E-03,+218.75000E-03,+6.24999E-03,+18.49997E-03
-7.60000E-03,+218.75000E-03,-9.37501E-03,+34.12497E-03
-7.58000E-03,+375.00000E-03,+6.24999E-03,+49.74997E-03
-7.56000E-03,+375.00000E-03,-9.37501E-03,+34.12497E-03
-7.54000E-03,+375.00000E-03,-9.37501E-03,+34.12497E-03
-7.52000E-03,+375.00000E-03,+6.24999E-03,+18.49997E-03
-7.50000E-03,+375.00000E-03,+6.24999E-03,+34.12497E-03
-7.48000E-03,+375.00000E-03,+6.24999E-03,+34.12497E-03
-7.46000E-03,+62.50000E-03,+6.24999E-03,+34.12497E-03
-7.44000E-03,+375.00000E-03,+6.24999E-03,+34.12497E-03
-7.42000E-03,+375.00000E-03,-9.37501E-03,+2.87497E-03
-7.40000E-03,+218.75000E-03,+6.24999E-03,+18.49997E-03
-7.38000E-03,+218.75000E-03,-9.37501E-03,+34.12497E-03
-7.36000E-03,+375.00000E-03,+6.24999E-03,+18.49997E-03
-7.34000E-03,+218.75000E-03,-9.37501E-03,+34.12497E-03
-7.32000E-03,+62.50000E-03,+21.87499E-03,+18.49997E-03
-7.30000E-03,+218.75000E-03,+21.87499E-03,+18.49997E-03
-7.28000E-03,+375.00000E-03,+6.24999E-03,+18.49997E-03
-7.26000E-03,+218.75000E-03,-9.37501E-03,+18.49997E-03
-7.24000E-03,+62.50000E-03,-9.37501E-03,+34.12497E-03
-7.22000E-03,+375.00000E-03,-9.37501E-03,+34.12497E-03
-7.20000E-03,+218.75000E-03,-9.37501E-03,+34.12497E-03
-7.18000E-03,+375.00000E-03,+6.24999E-03,+18.49997E-03
-7.16000E-03,+375.00000E-03,+6.24999E-03,+2.87497E-03
-7.14000E-03,+375.00000E-03,+21.87499E-03,+34.12497E-03
-7.12000E-03,+375.00000E-03,+6.24999E-03,+34.12497E-03
-7.10000E-03,+218.75000E-03,+6.24999E-03,+49.74997E-03
-7.08000E-03,+218.75000E-03,+6.24999E-03,+34.12497E-03
-7.06000E-03,+218.75000E-03,+6.24999E-03,+18.49997E-03
-7.04000E-03,+218.75000E-03,+6.24999E-03,+2.87497E-03
-7.02000E-03,+218.75000E-03,+6.24999E-03,+34.12497E-03
-7.00000E-03,+218.75000E-03,+6.24999E-03,+34.12497E-03
-6.98000E-03,+375.00000E-03,-25.00001E-03,+34.12497E-03
-6.96000E-03,+375.00000E-03,-9.37501E-03,+18.49997E-03
-6.94000E-03,+218.75000E-03,+6.24999E-03,+18.49997E-03
-6.92000E-03,+375.00000E-03,+6.24999E-03,+34.12497E-03
-6.90000E-03,+375.00000E-03,+6.24999E-03,+18.49997E-03
-6.88000E-03,+218.75000E-03,-9.37501E-03,+18.49997E-03
-6.86000E-03,+218.75000E-03,+6.24999E-03,+18.49997E-03
-6.84000E-03,+218.75000E-03,+6.24999E-03,+49.74997E-03
-6.82000E-03,+62.50000E-03,-9.37501E-03,+34.12497E-03
-6.80000E-03,+218.75000E-03,+6.24999E-03,+18.49997E-03
-6.78000E-03,+375.00000E-03,+6.24999E-03,+34.12497E-03
-6.76000E-03,+218.75000E-03,+6.24999E-03,+34.12497E-03
-6.74000E-03,+375.00000E-03,-9.37501E-03,+49.74997E-03
-6.72000E-03,+375.00000E-03,+21.87499E-03,+18.49997E-03
-6.70000E-03,+218.75000E-03,+6.24999E-03,+18.49997E-03
-6.68000E-03,+218.75000E-03,+6.24999E-03,+18.49997E-03
-6.66000E-03,+375.00000E-03,+6.24999E-03,+18.49997E-03
-6.64000E-03,+375.00000E-03,+6.24999E-03,+34.12497E-03
-6.62000E-03,+218.75000E-03,+6.24999E-03,+34.12497E-03
-6.60000E-03,+375.00000E-03,-25.00001E-03,+34.12497E-03
-6.58000E-03,+375.00000E-03,-9.37501E-03,+18.49997E-03
-6.56000E-03,+218.75000E-03,-9.37501E-03,+18.49997E-03
-6.54000E-03,+218.75000E-03,-9.37501E-03,+49.74997E-03
-6.52000E-03,+218.75000E-03,+6.24999E-03,+34.12497E-03
-6.50000E-03,+218.75000E-03,+6.24999E-03,+18.49997E-03
-6.48000E-03,+218.75000E-03,-9.37501E-03,+18.49997E-03
-6.46000E-03,+218.75000E-03,+6.24999E-03,+34.12497E-03
-6.44000E-03,+375.00000E-03,+6.24999E-03,+18.49997E-03
-6.42000E-03,+218.75000E-03,+6.24999E-03,+34.12497E-03
-6.40000E-03,+218.75000E-03,+6.24999E-03,+18.49997E-03
-6.38000E-03,+218.75000E-03,-25.00001E-03,+18.49997E-03
-6.36000E-03,+375.00000E-03,+6.24999E-03,+2.87497E-03
-6.34000E-03,+218.75000E-03,+6.24999E-03,+2.87497E-03
-6.32000E-03,+218.75000E-03,+6.24999E-03,+18.49997E-03
-6.30000E-03,+375.00000E-03,+6.24999E-03,+18.49997E-03
-6.28000E-03,+218.75000E-03,-9.37501E-03,+18.49997E-03
-6.26000E-03,+375.00000E-03,-9.37501E-03,+18.49997E-03
-6.24000E-03,+375.00000E-03,+6.24999E-03,+34.12497E-03
-6.22000E-03,+218.75000E-03,+6.24999E-03,+34.12497E-03
-6.20000E-03,+218.75000E-03,+6.24999E-03,+18.49997E-03
-6.18000E-03,+375.00000E-03,-9.37501E-03,+18.49997E-03
-6.16000E-03,+218.75000E-03,+6.24999E-03,+18.49997E-03
-6.14000E-03,+375.00000E-03,+6.24999E-03,+18.49997E-03
-6.12000E-03,+218.75000E-03,+6.24999E-03,+18.49997E-03
-6.10000E-03,+218.75000E-03,+21.87499E-03,+34.12497E-03
-6.08000E-03,+375.00000E-03,-9.37501E-03,+18.49997E-03
-6.06000E-03,+218.75000E-03,-9.37501E-03,+18.49997E-03
-6.04000E-03,+218.75000E-03,+6.24999E-03,+18.49997E-03
-6.02000E-03,+375.00000E-03,-25.00001E-03,+34.12497E-03
-6.00000E-03,+62.50000E-03,-9.37501E-03,+18.49997E-03
-5.98000E-03,+375.00000E-03,+6.24999E-03,+49.74997E-03
-5.96000E-03,+375.00000E-03,+21.87499E-03,+34.12497E-03
-5.94000E-03,+218.75000E-03,-9.37501E-03,+34.12497E-03
-5.92000E-03,+375.00000E-03,-9.37501E-03,+34.12497E-03
-5.90000E-03,+375.00000E-03,-25.00001E-03,+18.49997E-03
-5.88000E-03,+218.75000E-03,+6.24999E-03,+34.12497E-03
-5.86000E-03,+218.75000E-03,-9.37501E-03,+18.49997E-03
-5.84000E-03,+375.00000E-03,+6.24999E-03,+34.12497E-03
-5.82000E-03,+218.75000E-03,+6.24999E-03,+34.12497E-03
-5.80000E-03,+375.00000E-03,+6.24999E-03,+34.12497E-03
-5.78000E-03,+375.00000E-03,+6.24999E-03,+34.12497E-03
-5.76000E-03,+218.75000E-03,+6.24999E-03,+2.87497E-03
-5.74000E-03,+375.00000E-03,-9.37501E-03,+34.12497E-03
-5.72000E-03,+375.00000E-03,-9.37501E-03,+18.49997E-03
-5.70000E-03,+375.00000E-03,+6.24999E-03,+34.12497E-03
-5.68000E-03,+218.75000E-03,+6.24999E-03,+18.49997E-03
-5.66000E-03,+62.50000E-03,+6.24999E-03,+18.49997E-03
-5.64000E-03,+375.00000E-03,+6.24999E-03,+2.87497E-03
-5.62000E-03,+375.00000E-03,+37.49999E-03,+34.12497E-03
-5.60000E-03,+375.00000E-03,+21.87499E-03,+18.49997E-03
-5.58000E-03,+218.75000E-03,+6.24999E-03,+18.49997E-03
-5.56000E-03,+218.75000E-03,+6.24999E-03,+18.49997E-03
-5.54000E-03,+218.75000E-03,+6.24999E-03,+18.49997E-03
-5.52000E-03,+375.00000E-03,+6.24999E-03,+34.12497E-03
-5.50000E-03,+218.75000E-03,-9.37501E-03,+18.49997E-03
-5.48000E-03,+218.75000E-03,+6.24999E-03,+18.49997E-03
-5.46000E-03,+218.75000E-03,-9.37501E-03,+34.12497E-03
-5.44000E-03,+375.00000E-03,+6.24999E-03,+34.12497E-03
-5.42000E-03,+375.00000E-03,+6.24999E-03,+2.87497E-03
-5.40000E-03,+218.75000E-03,+6.24999E-03,+2.87497E-03
-5.38000E-03,+375.00000E-03,+6.24999E-03,+34.12497E-03
-5.36000E-03,+375.00000E-03,+6.24999E-03,+34.12497E-03
-5.34000E-03,+218.75000E-03,+6.24999E-03,+18.49997E-03
-5.32000E-03,+218.75000E-03,-9.37501E-03,+34.12497E-03
-5.30000E-03,+218.75000E-03,-9.37501E-03,+18.49997E-03
-5.28000E-03,+218.75000E-03,+6.24999E-03,+18.49997E-03
-5.26000E-03,+218.75000E-03,+21.87499E-03,+18.49997E-03
-5.24000E-03,+218.75000E-03,-9.37501E-03,+18.49997E-03
-5.22000E-03,+62.50000E-03,+21.87499E-03,+18.49997E-03
-5.20000E-03,+218.75000E-03,-25.00001E-03,+18.49997E-03
-5.18000E-03,+375.00000E-03,+6.24999E-03,+34.12497E-03
-5.16000E-03,+375.00000E-03,+6.24999E-03,+18.49997E-03
-5.14000E-03,+375.00000E-03,+6.24999E-03,+18.49997E-03
-5.12000E-03,+375.00000E-03,+21.87499E-03,+34.12497E-03
-5.10000E-03,+375.00000E-03,+21.87499E-03,+18.49997E-03
-5.08000E-03,+375.00000E-03,+21.87499E-03,+18.49997E-03
-5.06000E-03,+218.75000E-03,+21.87499E-03,+18.49997E-03
-5.04000E-03,+218.75000E-03,+6.24999E-03,+18.49997E-03
-5.02000E-03,+218.75000E-03,+6.24999E-03,+34.12497E-03
-5.00000E-03,+218.75000E-03,+6.24999E-03,+18.49997E-03
-4.98000E-03,+218.75000E-03,+6.24999E-03,+49.74997E-03
-4.96000E-03,+62.50000E-03,+6.24999E-03,+18.49997E-03
-4.94000E-03,+218.75000E-03,-9.37501E-03,+18.49997E-03
-4.92000E-03,+375.00000E-03,+6.24999E-03,+34.12497E-03
-4.90000E-03,+62.50000E-03,+6.24999E-03,+34.12497E-03
-4.88000E-03,+375.00000E-03,+37.49999E-03,+18.49997E-03
-4.86000E-03,+218.75000E-03,+6.24999E-03,+18.49997E-03
-4.84000E-03,+375.00000E-03,+21.87499E-03,+34.12497E-03
-4.82000E-03,+218.75000E-03,+6.24999E-03,+34.12497E-03
-4.80000E-03,+375.00000E-03,+6.24999E-03,+49.74997E-03
-4.78000E-03,+218.75000E-03,-9.37501E-03,+34.12497E-03
-4.76000E-03,+375.00000E-03,+6.24999E-03,+18.49997E-03
-4.74000E-03,+375.00000E-03,+6.24999E-03,+49.74997E-03
-4.72000E-03,+375.00000E-03,-9.37501E-03,+49.74997E-03
-4.70000E-03,+375.00000E-03,+6.24999E-03,+34.12497E-03
-4.68000E-03,+218.75000E-03,+6.24999E-03,+18.49997E-03
-4.66000E-03,+218.75000E-03,+6.24999E-03,+34.12497E-03
-4.64000E-03,+62.50000E-03,+6.24999E-03,+18.49997E-03
-4.62000E-03,+62.50000E-03,+6.24999E-03,+65.37497E-03
-4.60000E-03,+375.00000E-03,+6.24999E-03,+34.12497E-03
-4.58000E-03,+218.75000E-03,+6.24999E-03,+34.12497E-03
-4.56000E-03,+218.75000E-03,+6.24999E-03,+18.49997E-03
-4.54000E-03,+218.75000E-03,+6.24999E-03,+18.49997E-03
-4.52000E-03,+218.75000E-03,-9.37501E-03,+34.12497E-03
-4.50000E-03,+218.75000E-03,+6.24999E-03,+18.49997E-03
-4.48000E-03,+62.50000E-03,+21.87499E-03,+18.49997E-03
-4.46000E-03,+218.75000E-03,-9.37501E-03,+49.74997E-03
-4.44000E-03,+375.00000E-03,+6.24999E-03,+49.74997E-03
-4.42000E-03,+375.00000E-03,+6.24999E-03,+34.12497E-03
-4.40000E-03,+375.00000E-03,+6.24999E-03,+49.74997E-03
-4.38000E-03,+375.00000E-03,+6.24999E-03,+34.12497E-03
-4.36000E-03,+375.00000E-03,+6.24999E-03,+34.12497E-03
-4.34000E-03,+375.00000E-03,-9.37501E-03,+18.49997E-03
-4.32000E-03,+375.00000E-03,-9.37501E-03,+2.87497E-03
-4.30000E-03,+218.75000E-03,+6.24999E-03,+34.12497E-03
-4.28000E-03,+375.00000E-03,-9.37501E-03,+34.12497E-03
-4.26000E-03,+375.00000E-03,-9.37501E-03,+49.74997E-03
-4.24000E-03,+218.75000E-03,+6.24999E-03,+18.49997E-03
-4.22000E-03,+218.75000E-03,+6.24999E-03,+18.49997E-03
-4.20000E-03,+218.75000E-03,+6.24999E-03,+34.12497E-03
-4.18000E-03,+375.00000E-03,+21.87499E-03,+49.74997E-03
-4.16000E-03,+218.75000E-03,+6.24999E-03,+18.49997E-03
-4.14000E-03,+375.00000E-03,+21.87499E-03,+49.74997E-03
-4.12000E-03,+375.00000E-03,+6.24999E-03,+34.12497E-03
-4.10000E-03,+375.00000E-03,+6.24999E-03,+18.49997E-03
-4.08000E-03,+375.00000E-03,-9.37501E-03,+34.12497E-03
-4.06000E-03,+62.50000E-03,+6.24999E-03,+34.12497E-03
-4.04000E-03,+218.75000E-03,+6.24999E-03,+34.12497E-03
-4.02000E-03,+375.00000E-03,-9.37501E-03,+18.49997E-03
-4.00000E-03,+375.00000E-03,-9.37501E-03,+34.12497E-03
-3.98000E-03,+218.75000E-03,+6.24999E-03,+18.49997E-03
-3.96000E-03,+218.75000E-03,+21.87499E-03,+34.12497E-03
-3.94000E-03,+218.75000E-03,-9.37501E-03,+18.49997E-03
-3.92000E-03,+375.00000E-03,-9.37501E-03,+34.12497E-03
-3.90000E-03,+218.75000E-03,+6.24999E-03,+18.49997E-03
-3.88000E-03,+218.75000E-03,+6.24999E-03,+34.12497E-03
-3.86000E-03,+375.00000E-03,+6.24999E-03,+34.12497E-03
-3.84000E-03,+218.75000E-03,-9.37501E-03,+18.49997E-03
-3.82000E-03,+375.00000E-03,+6.24999E-03,+18.49997E-03
-3.80000E-03,+218.75000E-03,+6.24999E-03,+34.12497E-03
-3.78000E-03,+218.75000E-03,+6.24999E-03,+18.49997E-03
-3.76000E-03,+218.75000E-03,+6.24999E-03,+34.12497E-03
-3.74000E-03,+375.00000E-03,-25.00001E-03,+34.12497E-03
-3.72000E-03,+375.00000E-03,+6.24999E-03,+34.12497E-03
-3.70000E-03,+375.00000E-03,-25.00001E-03,+34.12497E-03
-3.68000E-03,+531.25000E-03,+6.24999E-03,+49.74997E-03
-3.66000E-03,+375.00000E-03,+21.87499E-03,+18.49997E-03
-3.64000E-03,+375.00000E-03,+21.87499E-03,+49.74997E-03
-3.62000E-03,+375.00000E-03,+21.87499E-03,+49.74997E-03
-3.60000E-03,+218.75000E-03,+6.24999E-03,+49.74997E-03
-3.58000E-03,+218.75000E-03,+21.87499E-03,+34.12497E-03
-3.56000E-03,+218.75000E-03,-9.37501E-03,+34.12497E-03
-3.54000E-03,+375.00000E-03,-25.00001E-03,+34.12497E-03
-3.52000E-03,+218.75000E-03,-9.37501E-03,+34.12497E-03
-3.50000E-03,+218.75000E-03,-25.00001E-03,+49.74997E-03
-3.48000E-03,+218.75000E-03,-9.37501E-03,+34.12497E-03
-3.46000E-03,+218.75000E-03,+6.24999E-03,+34.12497E-03
-3.44000E-03,+218.75000E-03,+6.24999E-03,+34.12497E-03
-3.42000E-03,+218.75000E-03,+6.24999E-03,+34.12497E-03
-3.40000E-03,+375.00000E-03,-9.37501E-03,+34.12497E-03
-3.38000E-03,+375.00000E-03,+6.24999E-03,+18.49997E-03
-3.36000E-03,+375.00000E-03,+6.24999E-03,+34.12497E-03
-3.34000E-03,+375.00000E-03,+6.24999E-03,+18.49997E-03
-3.32000E-03,+218.75000E-03,-25.00001E-03,+49.74997E-03
-3.30000E-03,+375.00000E-03,+6.24999E-03,+49.74997E-03
-3.28000E-03,+218.75000E-03,+6.24999E-03,+18.49997E-03
-3.26000E-03,+218.75000E-03,-9.37501E-03,+34.12497E-03
-3.24000E-03,+375.00000E-03,+6.24999E-03,+49.74997E-03
-3.22000E-03,+62.50000E-03,+6.24999E-03,+34.12497E-03
-3.20000E-03,+218.75000E-03,+6.24999E-03,+34.12497E-03
-3.18000E-03,+375.00000E-03,+6.24999E-03,+34.12497E-03
-3.16000E-03,+375.00000E-03,+6.24999E-03,+34.12497E-03
-3.14000E-03,+375.00000E-03,+6.24999E-03,+49.74997E-03
-3.12000E-03,+218.75000E-03,+21.87499E-03,+18.49997E-03
-3.10000E-03,+375.00000E-03,+6.24999E-03,+34.12497E-03
-3.08000E-03,+375.00000E-03,+6.24999E-03,+34.12497E-03
-3.06000E-03,+375.00000E-03,+6.24999E-03,+34.12497E-03
-3.04000E-03,+531.25000E-03,+37.49999E-03,+34.12497E-03
-3.02000E-03,+375.00000E-03,+6.24999E-03,+34.12497E-03
-3.00000E-03,+218.75000E-03,+6.24999E-03,+34.12497E-03
-2.98000E-03,+375.00000E-03,-9.37501E-03,+49.74997E-03
-2.96000E-03,+375.00000E-03,+6.24999E-03,+34.12497E-03
-2.94000E-03,+375.00000E-03,-9.37501E-03,+34.12497E-03
-2.92000E-03,+375.00000E-03,-9.37501E-03,+34.12497E-03
-2.90000E-03,+218.75000E-03,+6.24999E-03,+34.12497E-03
-2.88000E-03,+218.75000E-03,+21.87499E-03,+34.12497E-03
-2.86000E-03,+375.00000E-03,+21.87499E-03,+49.74997E-03
-2.84000E-03,+375.00000E-03,+6.24999E-03,+49.74997E-03
-2.82000E-03,+218.75000E-03,+21.87499E-03,+18.49997E-03
-2.80000E-03,+218.75000E-03,+6.24999E-03,+49.74997E-03
-2.78000E-03,+375.00000E-03,-9.37501E-03,+80.99997E-03
-2.76000E-03,+375.00000E-03,+6.24999E-03,+49.74997E-03
-2.74000E-03,+218.75000E-03,-9.37501E-03,+49.74997E-03
-2.72000E-03,+375.00000E-03,+6.24999E-03,+49.74997E-03
-2.70000E-03,+218.75000E-03,+21.87499E-03,+49.74997E-03
-2.68000E-03,+218.75000E-03,+21.87499E-03,+65.37497E-03
-2.66000E-03,+218.75000E-03,-9.37501E-03,+34.12497E-03
-2.64000E-03,+375.00000E-03,-25.00001E-03,+18.49997E-03
-2.62000E-03,+218.75000E-03,+21.87499E-03,+18.49997E-03
-2.60000E-03,+218.75000E-03,+6.24999E-03,+49.74997E-03
-2.58000E-03,+218.75000E-03,+21.87499E-03,+49.74997E-03
-2.56000E-03,+218.75000E-03,+6.24999E-03,+49.74997E-03
-2.54000E-03,+218.75000E-03,-9.37501E-03,+49.74997E-03
-2.52000E-03,+218.75000E-03,+6.24999E-03,+49.74997E-03
-2.50000E-03,+218.75000E-03,-9.37501E-03,+18.49997E-03
-2.48000E-03,+218.75000E-03,+6.24999E-03,+34.12497E-03
-2.46000E-03,+375.00000E-03,+6.24999E-03,+49.74997E-03
-2.44000E-03,+218.75000E-03,-9.37501E-03,+18.49997E-03
-2.42000E-03,+218.75000E-03,-9.37501E-03,+34.12497E-03
-2.40000E-03,+218.75000E-03,+21.87499E-03,+34.12497E-03
-2.38000E-03,+218.75000E-03,+6.24999E-03,+49.74997E-03
-2.36000E-03,+218.75000E-03,+6.24999E-03,+49.74997E-03
-2.34000E-03,+375.00000E-03,+6.24999E-03,+49.74997E-03
-2.32000E-03,+375.00000E-03,+6.24999E-03,+49.74997E-03
-2.30000E-03,+218.75000E-03,-9.37501E-03,+49.74997E-03
-2.28000E-03,+375.00000E-03,+6.24999E-03,+34.12497E-03
-2.26000E-03,+218.75000E-03,-9.37501E-03,+34.12497E-03
-2.24000E-03,+218.75000E-03,+6.24999E-03,+34.12497E-03
-2.22000E-03,+62.50000E-03,+6.24999E-03,+49.74997E-03
-2.20000E-03,+375.00000E-03,-9.37501E-03,+49.74997E-03
-2.18000E-03,+218.75000E-03,+6.24999E-03,+49.74997E-03
-2.16000E-03,+218.75000E-03,-9.37501E-03,+49.74997E-03
-2.14000E-03,+375.00000E-03,-9.37501E-03,+18.49997E-03
-2.12000E-03,+375.00000E-03,-9.37501E-03,+34.12497E-03
-2.10000E-03,+218.75000E-03,+21.87499E-03,+34.12497E-03
-2.08000E-03,+218.75000E-03,+6.24999E-03,+34.12497E-03
-2.06000E-03,+218.75000E-03,-9.37501E-03,+34.12497E-03
-2.04000E-03,+218.75000E-03,+6.24999E-03,+49.74997E-03
-2.02000E-03,+375.00000E-03,-9.37501E-03,+34.12497E-03
-2.00000E-03,+375.00000E-03,-9.37501E-03,+34.12497E-03
-1.98000E-03,+375.00000E-03,-25.00001E-03,+49.74997E-03
-1.96000E-03,+375.00000E-03,+6.24999E-03,+49.74997E-03
-1.94000E-03,+375.00000E-03,-9.37501E-03,+34.12497E-03
-1.92000E-03,+375.00000E-03,+6.24999E-03,+49.74997E-03
-1.90000E-03,+218.75000E-03,+6.24999E-03,+34.12497E-03
-1.88000E-03,+218.75000E-03,+6.24999E-03,+49.74997E-03
-1.86000E-03,+218.75000E-03,+6.24999E-03,+34.12497E-03
-1.84000E-03,+375.00000E-03,+6.24999E-03,+65.37497E-03
-1.82000E-03,+218.75000E-03,-9.37501E-03,+65.37497E-03
-1.80000E-03,+375.00000E-03,+6.24999E-03,+49.74997E-03
-1.78000E-03,+531.25000E-03,+6.24999E-03,+49.74997E-03
-1.76000E-03,+531.25000E-03,+6.24999E-03,+49.74997E-03
-1.74000E-03,+218.75000E-03,+6.24999E-03,+18.49997E-03
-1.72000E-03,+375.00000E-03,+6.24999E-03,+34.12497E-03
-1.70000E-03,+218.75000E-03,+21.87499E-03,+49.74997E-03
-1.68000E-03,+375.00000E-03,-9.37501E-03,+49.74997E-03
-1.66000E-03,+375.00000E-03,+6.24999E-03,+49.74997E-03
-1.64000E-03,+218.75000E-03,-9.37501E-03,+34.12497E-03
-1.62000E-03,+375.00000E-03,-9.37501E-03,+34.12497E-03
-1.60000E-03,+375.00000E-03,+6.24999E-03,+65.37497E-03
-1.58000E-03,+218.75000E-03,+6.24999E-03,+34.12497E-03
-1.56000E-03,+218.75000E-03,+6.24999E-03,+49.74997E-03
-1.54000E-03,+375.00000E-03,-9.37501E-03,+65.37497E-03
-1.52000E-03,+375.00000E-03,-25.00001E-03,+65.37497E-03
-1.50000E-03,+375.00000E-03,+6.24999E-03,+49.74997E-03
-1.48000E-03,+531.25000E-03,+6.24999E-03,+65.37497E-03
-1.46000E-03,+375.00000E-03,+6.24999E-03,+34.12497E-03
-1.44000E-03,+375.00000E-03,+37.49999E-03,+65.37497E-03
-1.42000E-03,+375.00000E-03,+21.87499E-03,+49.74997E-03
-1.40000E-03,+218.75000E-03,+6.24999E-03,+34.12497E-03
-1.38000E-03,+218.75000E-03,+6.24999E-03,+49.74997E-03
-1.36000E-03,+218.75000E-03,+6.24999E-03,+34.12497E-03
-1.34000E-03,+375.00000E-03,+6.24999E-03,+65.37497E-03
-1.32000E-03,+218.75000E-03,-9.37501E-03,+34.12497E-03
-1.30000E-03,+218.75000E-03,-9.37501E-03,+49.74997E-03
-1.28000E-03,+375.00000E-03,-9.37501E-03,+65.37497E-03
-1.26000E-03,+375.00000E-03,+6.24999E-03,+34.12497E-03
-1.24000E-03,+218.75000E-03,-9.37501E-03,+34.12497E-03
-1.22000E-03,+531.25000E-03,-9.37501E-03,+65.37497E-03
-1.20000E-03,+218.75000E-03,-9.37501E-03,+34.12497E-03
-1.18000E-03,+375.00000E-03,-9.37501E-03,+49.74997E-03
-1.16000E-03,+375.00000E-03,+21.87499E-03,+49.74997E-03
-1.14000E-03,+375.00000E-03,+6.24999E-03,+65.37497E-03
-1.12000E-03,+218.75000E-03,-9.37501E-03,+34.12497E-03
-1.10000E-03,+531.25000E-03,+6.24999E-03,+65.37497E-03
-1.08000E-03,+375.00000E-03,-25.00001E-03,+49.74997E-03
-1.06000E-03,+375.00000E-03,-9.37501E-03,+49.74997E-03
-1.04000E-03,+375.00000E-03,-9.37501E-03,+49.74997E-03
-1.02000E-03,+375.00000E-03,+6.24999E-03,+65.37497E-03
-1.00000E-03,+375.00000E-03,-9.37501E-03,+34.12497E-03
-980.00E-06,+375.00000E-03,-9.37501E-03,+34.12497E-03
-960.00E-06,+375.00000E-03,-9.37501E-03,+34.12497E-03
-940.00E-06,+375.00000E-03,-25.00001E-03,+49.74997E-03
-920.00E-06,+375.00000E-03,-25.00001E-03,+49.74997E-03
-900.00E-06,+531.25000E-03,-25.00001E-03,+65.37497E-03
-880.00E-06,+375.00000E-03,-9.37501E-03,+65.37497E-03
-860.00E-06,+375.00000E-03,-9.37501E-03,+49.74997E-03
-840.00E-06,+531.25000E-03,+21.87499E-03,+65.37497E-03
-820.00E-06,+375.00000E-03,-25.00001E-03,+49.74997E-03
-800.00E-06,+375.00000E-03,-9.37501E-03,+34.12497E-03
-780.00E-06,+375.00000E-03,-9.37501E-03,+34.12497E-03
-760.00E-06,+375.00000E-03,+6.24999E-03,+65.37497E-03
-740.00E-06,+375.00000E-03,-9.37501E-03,+49.74997E-03
-720.00E-06,+375.00000E-03,+6.24999E-03,+49.74997E-03
-700.00E-06,+375.00000E-03,-9.37501E-03,+65.37497E-03
-680.00E-06,+375.00000E-03,-25.00001E-03,+49.74997E-03
-660.00E-06,+531.25000E-03,-9.37501E-03,+34.12497E-03
-640.00E-06,+375.00000E-03,-9.37501E-03,+49.74997E-03
-620.00E-06,+375.00000E-03,+6.24999E-03,+65.37497E-03
-600.00E-06,+375.00000E-03,-9.37501E-03,+65.37497E-03
-580.00E-06,+687.50000E-03,-9.37501E-03,+80.99997E-03
-560.00E-06,+218.75000E-03,-25.00001E-03,+49.74997E-03
-540.00E-06,+375.00000E-03,-9.37501E-03,+34.12497E-03
-520.00E-06,+375.00000E-03,-25.00001E-03,+49.74997E-03
-500.00E-06,+375.00000E-03,-9.37501E-03,+49.74997E-03
-480.00E-06,+531.25000E-03,-25.00001E-03,+65.37497E-03
-460.00E-06,+375.00000E-03,-9.37501E-03,+49.74997E-03
-440.00E-06,+375.00000E-03,-9.37501E-03,+49.74997E-03
-420.00E-06,+531.25000E-03,+6.24999E-03,+49.74997E-03
-400.00E-06,+218.75000E-03,-25.00001E-03,+49.74997E-03
-380.00E-06,+531.25000E-03,+6.24999E-03,+49.74997E-03
-360.00E-06,+375.00000E-03,-25.00001E-03,+49.74997E-03
-340.00E-06,+531.25000E-03,-40.62501E-03,+34.12497E-03
-320.00E-06,+687.50000E-03,-56.25001E-03,+65.37497E-03
-300.00E-06,+375.00000E-03,-9.37501E-03,+49.74997E-03
-280.00E-06,+375.00000E-03,-25.00001E-03,+65.37497E-03
-260.00E-06,+375.00000E-03,-25.00001E-03,+65.37497E-03
-240.00E-06,+375.00000E-03,-40.62501E-03,+34.12497E-03
-220.00E-06,+375.00000E-03,-9.37501E-03,+18.49997E-03
-200.00E-06,+375.00000E-03,-25.00001E-03,+34.12497E-03
-180.00E-06,+531.25000E-03,-40.62501E-03,+49.74997E-03
-160.00E-06,+375.00000E-03,-25.00001E-03,+65.37497E-03
-140.00E-06,+218.75000E-03,-9.37501E-03,+34.12497E-03
-120.00E-06,+375.00000E-03,+21.87499E-03,+49.74997E-03
-100.00E-06,+375.00000E-03,-25.00001E-03,+65.37497E-03
-80.00E-06,+531.25000E-03,-25.00001E-03,+49.74997E-03
-60.00E-06,+375.00000E-03,-25.00001E-03,+49.74997E-03
-40.00E-06,+531.25000E-03,-25.00001E-03,+49.74997E-03
-20.00E-06,+375.00000E-03,-25.00001E-03,+65.37497E-03
-0.0E+00,+531.25000E-03,-25.00001E-03,+18.49997E-03
+20.00E-06,-93.75000E-03,+6.24999E-03,+34.12497E-03
+40.00E-06,+10.53125000E+00,+1.83437499E+00,-12.75003E-03
+60.00E-06,+13.65625000E+00,+2.16249999E+00,-122.12503E-03
+80.00E-06,+13.65625000E+00,+2.16249999E+00,-106.50003E-03
+100.00E-06,+13.81250000E+00,+2.17812499E+00,-44.00003E-03
+120.00E-06,+13.81250000E+00,+2.13124999E+00,-44.00003E-03
+140.00E-06,+13.50000000E+00,+2.13124999E+00,+18.49997E-03
+160.00E-06,+13.65625000E+00,+2.11562499E+00,+65.37497E-03
+180.00E-06,+13.65625000E+00,+2.11562499E+00,+96.62497E-03
+200.00E-06,+13.50000000E+00,+2.11562499E+00,+143.49997E-03
+220.00E-06,+13.65625000E+00,+2.08437499E+00,+174.74997E-03
+240.00E-06,+13.34375000E+00,+2.05312499E+00,+237.24997E-03
+260.00E-06,+13.18750000E+00,+2.05312499E+00,+268.49997E-03
+280.00E-06,+13.18750000E+00,+2.02187499E+00,+299.74997E-03
+300.00E-06,+13.18750000E+00,+2.03749999E+00,+330.99997E-03
+320.00E-06,+13.03125000E+00,+1.99062499E+00,+393.49997E-03
+340.00E-06,+13.03125000E+00,+1.99062499E+00,+424.74997E-03
+360.00E-06,+13.03125000E+00,+1.95937499E+00,+440.37497E-03
+380.00E-06,+12.71875000E+00,+1.94374999E+00,+487.24997E-03
+400.00E-06,+12.87500000E+00,+1.89687499E+00,+534.12497E-03
+420.00E-06,+12.71875000E+00,+1.89687499E+00,+580.99997E-03
+440.00E-06,+12.71875000E+00,+1.88124999E+00,+612.24997E-03
+460.00E-06,+12.56250000E+00,+1.86562499E+00,+627.87497E-03
+480.00E-06,+12.40625000E+00,+1.81874999E+00,+674.74997E-03
+500.00E-06,+12.56250000E+00,+1.80312499E+00,+705.99997E-03
+520.00E-06,+12.25000000E+00,+1.77187499E+00,+721.62497E-03
+540.00E-06,+12.25000000E+00,+1.74062499E+00,+752.87497E-03
+560.00E-06,+12.25000000E+00,+1.72499999E+00,+784.12497E-03
+580.00E-06,+12.09375000E+00,+1.69374999E+00,+799.74997E-03
+600.00E-06,+11.93750000E+00,+1.63124999E+00,+830.99997E-03
+620.00E-06,+11.78125000E+00,+1.64687499E+00,+877.87497E-03
+640.00E-06,+11.78125000E+00,+1.58437499E+00,+893.49997E-03
+660.00E-06,+11.93750000E+00,+1.58437499E+00,+940.37497E-03
+680.00E-06,+11.62500000E+00,+1.56874999E+00,+955.99997E-03
+700.00E-06,+11.46875000E+00,+1.50624999E+00,+955.99997E-03
+720.00E-06,+11.46875000E+00,+1.45937499E+00,+955.99997E-03
+740.00E-06,+11.15625000E+00,+1.42812499E+00,+1.00287497E+00
+760.00E-06,+11.15625000E+00,+1.39687499E+00,+1.00287497E+00
+780.00E-06,+11.00000000E+00,+1.36562499E+00,+1.00287497E+00
+800.00E-06,+11.00000000E+00,+1.31874999E+00,+1.00287497E+00
+820.00E-06,+10.84375000E+00,+1.30312499E+00,+1.03412497E+00
+840.00E-06,+10.68750000E+00,+1.28749999E+00,+1.03412497E+00
+860.00E-06,+10.53125000E+00,+1.25624999E+00,+1.04974997E+00
+880.00E-06,+10.53125000E+00,+1.20937499E+00,+1.06537497E+00
+900.00E-06,+10.21875000E+00,+1.17812499E+00,+1.04974997E+00
+920.00E-06,+10.06250000E+00,+1.13124999E+00,+1.06537497E+00
+940.00E-06,+10.21875000E+00,+1.13124999E+00,+1.08099997E+00
+960.00E-06,+9.90625000E+00,+1.09999999E+00,+1.09662497E+00
+980.00E-06,+9.90625000E+00,+1.05312499E+00,+1.08099997E+00
+1.00000E-03,+9.75000000E+00,+1.02187499E+00,+1.09662497E+00
+1.02000E-03,+9.59375000E+00,+974.99999E-03,+1.09662497E+00
+1.04000E-03,+9.59375000E+00,+959.37499E-03,+1.09662497E+00
+1.06000E-03,+9.43750000E+00,+928.12499E-03,+1.11224997E+00
+1.08000E-03,+9.43750000E+00,+912.49999E-03,+1.11224997E+00
+1.10000E-03,+9.12500000E+00,+865.62499E-03,+1.08099997E+00
+1.12000E-03,+9.12500000E+00,+834.37499E-03,+1.08099997E+00
+1.14000E-03,+8.81250000E+00,+818.74999E-03,+1.08099997E+00
+1.16000E-03,+8.81250000E+00,+771.87499E-03,+1.08099997E+00
+1.18000E-03,+8.65625000E+00,+740.62499E-03,+1.06537497E+00
+1.20000E-03,+8.50000000E+00,+724.99999E-03,+1.08099997E+00
+1.22000E-03,+8.50000000E+00,+709.37499E-03,+1.06537497E+00
+1.24000E-03,+8.34375000E+00,+693.74999E-03,+1.04974997E+00
+1.26000E-03,+8.18750000E+00,+662.49999E-03,+1.03412497E+00
+1.28000E-03,+8.18750000E+00,+662.49999E-03,+1.04974997E+00
+1.30000E-03,+7.71875000E+00,+599.99999E-03,+1.03412497E+00
+1.32000E-03,+7.71875000E+00,+584.37499E-03,+1.01849997E+00
+1.34000E-03,+7.71875000E+00,+584.37499E-03,+1.01849997E+00
+1.36000E-03,+7.56250000E+00,+537.49999E-03,+1.00287497E+00
+1.38000E-03,+7.40625000E+00,+537.49999E-03,+987.24997E-03
+1.40000E-03,+7.25000000E+00,+490.62499E-03,+955.99997E-03
+1.42000E-03,+7.25000000E+00,+459.37499E-03,+955.99997E-03
+1.44000E-03,+7.09375000E+00,+474.99999E-03,+955.99997E-03
+1.46000E-03,+6.93750000E+00,+443.74999E-03,+940.37497E-03
+1.48000E-03,+6.78125000E+00,+428.12499E-03,+924.74997E-03
+1.50000E-03,+6.62500000E+00,+412.49999E-03,+909.12497E-03
+1.52000E-03,+6.46875000E+00,+396.87499E-03,+893.49997E-03
+1.54000E-03,+6.46875000E+00,+412.49999E-03,+877.87497E-03
+1.56000E-03,+6.31250000E+00,+381.24999E-03,+846.62497E-03
+1.58000E-03,+6.15625000E+00,+349.99999E-03,+862.24997E-03
+1.60000E-03,+6.15625000E+00,+334.37499E-03,+846.62497E-03
+1.62000E-03,+6.00000000E+00,+334.37499E-03,+846.62497E-03
+1.64000E-03,+5.84375000E+00,+318.74999E-03,+815.37497E-03
+1.66000E-03,+6.00000000E+00,+334.37499E-03,+799.74997E-03
+1.68000E-03,+5.84375000E+00,+287.49999E-03,+799.74997E-03
+1.70000E-03,+5.68750000E+00,+271.87499E-03,+784.12497E-03
+1.72000E-03,+5.37500000E+00,+287.49999E-03,+768.49997E-03
+1.74000E-03,+5.37500000E+00,+256.24999E-03,+752.87497E-03
+1.76000E-03,+5.21875000E+00,+256.24999E-03,+737.24997E-03
+1.78000E-03,+5.21875000E+00,+256.24999E-03,+737.24997E-03
+1.80000E-03,+5.06250000E+00,+256.24999E-03,+721.62497E-03
+1.82000E-03,+5.06250000E+00,+256.24999E-03,+690.37497E-03
+1.84000E-03,+4.90625000E+00,+224.99999E-03,+674.74997E-03
+1.86000E-03,+4.90625000E+00,+224.99999E-03,+690.37497E-03
+1.88000E-03,+4.75000000E+00,+209.37499E-03,+674.74997E-03
+1.90000E-03,+4.75000000E+00,+224.99999E-03,+674.74997E-03
+1.92000E-03,+4.59375000E+00,+209.37499E-03,+659.12497E-03
+1.94000E-03,+4.43750000E+00,+209.37499E-03,+627.87497E-03
+1.96000E-03,+4.43750000E+00,+209.37499E-03,+627.87497E-03
+1.98000E-03,+4.28125000E+00,+178.12499E-03,+596.62497E-03
+2.00000E-03,+4.28125000E+00,+178.12499E-03,+627.87497E-03
+2.02000E-03,+4.12500000E+00,+193.74999E-03,+596.62497E-03
+2.04000E-03,+4.12500000E+00,+193.74999E-03,+596.62497E-03
+2.06000E-03,+4.12500000E+00,+178.12499E-03,+596.62497E-03
+2.08000E-03,+4.12500000E+00,+178.12499E-03,+580.99997E-03
+2.10000E-03,+4.12500000E+00,+193.74999E-03,+580.99997E-03
+2.12000E-03,+4.28125000E+00,+178.12499E-03,+549.74997E-03
+2.14000E-03,+4.12500000E+00,+178.12499E-03,+565.37497E-03
+2.16000E-03,+3.96875000E+00,+178.12499E-03,+549.74997E-03
+2.18000E-03,+3.65625000E+00,+146.87499E-03,+534.12497E-03
+2.20000E-03,+3.65625000E+00,+162.49999E-03,+518.49997E-03
+2.22000E-03,+3.65625000E+00,+146.87499E-03,+518.49997E-03
+2.24000E-03,+3.65625000E+00,+162.49999E-03,+518.49997E-03
+2.26000E-03,+3.65625000E+00,+162.49999E-03,+487.24997E-03
+2.28000E-03,+3.81250000E+00,+146.87499E-03,+518.49997E-03
+2.30000E-03,+3.50000000E+00,+131.24999E-03,+487.24997E-03
+2.32000E-03,+3.34375000E+00,+162.49999E-03,+502.87497E-03
+2.34000E-03,+3.34375000E+00,+162.49999E-03,+471.62497E-03
+2.36000E-03,+3.50000000E+00,+146.87499E-03,+471.62497E-03
+2.38000E-03,+3.34375000E+00,+146.87499E-03,+487.24997E-03
+2.40000E-03,+3.34375000E+00,+131.24999E-03,+440.37497E-03
+2.42000E-03,+3.50000000E+00,+146.87499E-03,+455.99997E-03
+2.44000E-03,+3.34375000E+00,+131.24999E-03,+471.62497E-03
+2.46000E-03,+3.18750000E+00,+146.87499E-03,+455.99997E-03
+2.48000E-03,+3.18750000E+00,+115.62499E-03,+455.99997E-03
+2.50000E-03,+3.18750000E+00,+146.87499E-03,+440.37497E-03
+2.52000E-03,+3.18750000E+00,+131.24999E-03,+440.37497E-03
+2.54000E-03,+3.03125000E+00,+146.87499E-03,+440.37497E-03
+2.56000E-03,+3.03125000E+00,+115.62499E-03,+424.74997E-03
+2.58000E-03,+3.18750000E+00,+146.87499E-03,+455.99997E-03
+2.60000E-03,+3.03125000E+00,+131.24999E-03,+424.74997E-03
+2.62000E-03,+3.18750000E+00,+131.24999E-03,+455.99997E-03
+2.64000E-03,+3.03125000E+00,+131.24999E-03,+393.49997E-03
+2.66000E-03,+2.87500000E+00,+99.99999E-03,+409.12497E-03
+2.68000E-03,+3.03125000E+00,+131.24999E-03,+409.12497E-03
+2.70000E-03,+2.87500000E+00,+115.62499E-03,+409.12497E-03
+2.72000E-03,+3.03125000E+00,+99.99999E-03,+409.12497E-03
+2.74000E-03,+2.87500000E+00,+131.24999E-03,+393.49997E-03
+2.76000E-03,+2.87500000E+00,+99.99999E-03,+393.49997E-03
+2.78000E-03,+2.87500000E+00,+115.62499E-03,+393.49997E-03
+2.80000E-03,+2.87500000E+00,+115.62499E-03,+409.12497E-03
+2.82000E-03,+2.71875000E+00,+115.62499E-03,+393.49997E-03
+2.84000E-03,+2.71875000E+00,+115.62499E-03,+377.87497E-03
+2.86000E-03,+2.71875000E+00,+99.99999E-03,+377.87497E-03
+2.88000E-03,+2.71875000E+00,+84.37499E-03,+377.87497E-03
+2.90000E-03,+2.56250000E+00,+99.99999E-03,+362.24997E-03
+2.92000E-03,+2.56250000E+00,+99.99999E-03,+377.87497E-03
+2.94000E-03,+2.40625000E+00,+99.99999E-03,+377.87497E-03
+2.96000E-03,+2.71875000E+00,+84.37499E-03,+362.24997E-03
+2.98000E-03,+2.56250000E+00,+84.37499E-03,+346.62497E-03
+3.00000E-03,+2.56250000E+00,+99.99999E-03,+362.24997E-03
+3.02000E-03,+2.56250000E+00,+68.74999E-03,+362.24997E-03
+3.04000E-03,+2.40625000E+00,+99.99999E-03,+362.24997E-03
+3.06000E-03,+2.40625000E+00,+84.37499E-03,+362.24997E-03
+3.08000E-03,+2.40625000E+00,+99.99999E-03,+362.24997E-03
+3.10000E-03,+2.40625000E+00,+84.37499E-03,+346.62497E-03
+3.12000E-03,+2.25000000E+00,+84.37499E-03,+330.99997E-03
+3.14000E-03,+2.40625000E+00,+84.37499E-03,+330.99997E-03
+3.16000E-03,+2.40625000E+00,+84.37499E-03,+346.62497E-03
+3.18000E-03,+2.25000000E+00,+99.99999E-03,+346.62497E-03
+3.20000E-03,+2.25000000E+00,+68.74999E-03,+330.99997E-03
+3.22000E-03,+2.25000000E+00,+84.37499E-03,+330.99997E-03
+3.24000E-03,+2.40625000E+00,+68.74999E-03,+315.37497E-03
+3.26000E-03,+2.25000000E+00,+84.37499E-03,+330.99997E-03
+3.28000E-03,+2.25000000E+00,+53.12499E-03,+315.37497E-03
+3.30000E-03,+2.25000000E+00,+84.37499E-03,+330.99997E-03
+3.32000E-03,+2.25000000E+00,+84.37499E-03,+315.37497E-03
+3.34000E-03,+2.25000000E+00,+68.74999E-03,+315.37497E-03
+3.36000E-03,+2.25000000E+00,+68.74999E-03,+315.37497E-03
+3.38000E-03,+2.25000000E+00,+68.74999E-03,+315.37497E-03
+3.40000E-03,+2.09375000E+00,+68.74999E-03,+315.37497E-03
+3.42000E-03,+2.09375000E+00,+84.37499E-03,+299.74997E-03
+3.44000E-03,+2.09375000E+00,+84.37499E-03,+299.74997E-03
+3.46000E-03,+1.93750000E+00,+68.74999E-03,+268.49997E-03
+3.48000E-03,+1.93750000E+00,+84.37499E-03,+284.12497E-03
+3.50000E-03,+2.09375000E+00,+68.74999E-03,+284.12497E-03
+3.52000E-03,+2.25000000E+00,+68.74999E-03,+315.37497E-03
+3.54000E-03,+2.09375000E+00,+84.37499E-03,+299.74997E-03
+3.56000E-03,+2.09375000E+00,+68.74999E-03,+268.49997E-03
+3.58000E-03,+1.93750000E+00,+68.74999E-03,+268.49997E-03
+3.60000E-03,+2.09375000E+00,+68.74999E-03,+284.12497E-03
+3.62000E-03,+2.25000000E+00,+99.99999E-03,+284.12497E-03
+3.64000E-03,+1.93750000E+00,+53.12499E-03,+299.74997E-03
+3.66000E-03,+1.93750000E+00,+84.37499E-03,+268.49997E-03
+3.68000E-03,+2.09375000E+00,+99.99999E-03,+284.12497E-03
+3.70000E-03,+2.09375000E+00,+68.74999E-03,+268.49997E-03
+3.72000E-03,+1.93750000E+00,+84.37499E-03,+268.49997E-03
+3.74000E-03,+1.93750000E+00,+68.74999E-03,+284.12497E-03
+3.76000E-03,+1.93750000E+00,+53.12499E-03,+268.49997E-03
+3.78000E-03,+1.93750000E+00,+68.74999E-03,+252.87497E-03
+3.80000E-03,+1.93750000E+00,+68.74999E-03,+252.87497E-03
+3.82000E-03,+1.93750000E+00,+53.12499E-03,+268.49997E-03
+3.84000E-03,+1.93750000E+00,+84.37499E-03,+284.12497E-03
+3.86000E-03,+1.78125000E+00,+84.37499E-03,+252.87497E-03
+3.88000E-03,+1.93750000E+00,+68.74999E-03,+268.49997E-03
+3.90000E-03,+1.93750000E+00,+68.74999E-03,+252.87497E-03
+3.92000E-03,+1.93750000E+00,+84.37499E-03,+252.87497E-03
+3.94000E-03,+1.93750000E+00,+53.12499E-03,+252.87497E-03
+3.96000E-03,+1.93750000E+00,+84.37499E-03,+284.12497E-03
+3.98000E-03,+1.78125000E+00,+68.74999E-03,+268.49997E-03
+4.00000E-03,+1.93750000E+00,+53.12499E-03,+268.49997E-03
+4.02000E-03,+1.78125000E+00,+84.37499E-03,+268.49997E-03
+4.04000E-03,+1.78125000E+00,+53.12499E-03,+268.49997E-03
+4.06000E-03,+1.93750000E+00,+53.12499E-03,+252.87497E-03
+4.08000E-03,+1.62500000E+00,+68.74999E-03,+237.24997E-03
+4.10000E-03,+1.78125000E+00,+53.12499E-03,+252.87497E-03
+4.12000E-03,+1.93750000E+00,+68.74999E-03,+268.49997E-03
+4.14000E-03,+1.78125000E+00,+53.12499E-03,+237.24997E-03
+4.16000E-03,+1.93750000E+00,+68.74999E-03,+252.87497E-03
+4.18000E-03,+1.62500000E+00,+53.12499E-03,+268.49997E-03
+4.20000E-03,+1.78125000E+00,+68.74999E-03,+252.87497E-03
+4.22000E-03,+1.93750000E+00,+53.12499E-03,+268.49997E-03
+4.24000E-03,+1.78125000E+00,+53.12499E-03,+268.49997E-03
+4.26000E-03,+1.78125000E+00,+53.12499E-03,+268.49997E-03
+4.28000E-03,+1.78125000E+00,+68.74999E-03,+252.87497E-03
+4.30000E-03,+1.78125000E+00,+53.12499E-03,+237.24997E-03
+4.32000E-03,+1.78125000E+00,+68.74999E-03,+252.87497E-03
+4.34000E-03,+1.78125000E+00,+21.87499E-03,+252.87497E-03
+4.36000E-03,+1.78125000E+00,+53.12499E-03,+252.87497E-03
+4.38000E-03,+1.62500000E+00,+53.12499E-03,+237.24997E-03
+4.40000E-03,+1.78125000E+00,+37.49999E-03,+252.87497E-03
+4.42000E-03,+1.62500000E+00,+53.12499E-03,+252.87497E-03
+4.44000E-03,+1.62500000E+00,+37.49999E-03,+252.87497E-03
+4.46000E-03,+1.62500000E+00,+53.12499E-03,+237.24997E-03
+4.48000E-03,+1.78125000E+00,+21.87499E-03,+252.87497E-03
+4.50000E-03,+1.62500000E+00,+37.49999E-03,+252.87497E-03
+4.52000E-03,+1.93750000E+00,+21.87499E-03,+252.87497E-03
+4.54000E-03,+1.46875000E+00,+21.87499E-03,+237.24997E-03
+4.56000E-03,+1.78125000E+00,+21.87499E-03,+237.24997E-03
+4.58000E-03,+1.62500000E+00,+21.87499E-03,+221.62497E-03
+4.60000E-03,+1.62500000E+00,+37.49999E-03,+221.62497E-03
+4.62000E-03,+1.62500000E+00,+21.87499E-03,+237.24997E-03
+4.64000E-03,+1.62500000E+00,+6.24999E-03,+221.62497E-03
+4.66000E-03,+1.78125000E+00,+37.49999E-03,+221.62497E-03
+4.68000E-03,+1.62500000E+00,+21.87499E-03,+221.62497E-03
+4.70000E-03,+1.62500000E+00,+21.87499E-03,+221.62497E-03
+4.72000E-03,+1.62500000E+00,+21.87499E-03,+221.62497E-03
+4.74000E-03,+1.62500000E+00,+6.24999E-03,+221.62497E-03
+4.76000E-03,+1.46875000E+00,+21.87499E-03,+221.62497E-03
+4.78000E-03,+1.46875000E+00,+37.49999E-03,+221.62497E-03
+4.80000E-03,+1.62500000E+00,-9.37501E-03,+221.62497E-03
+4.82000E-03,+1.46875000E+00,+6.24999E-03,+205.99997E-03
+4.84000E-03,+1.46875000E+00,+6.24999E-03,+221.62497E-03
+4.86000E-03,+1.31250000E+00,-9.37501E-03,+205.99997E-03
+4.88000E-03,+1.46875000E+00,+6.24999E-03,+221.62497E-03
+4.90000E-03,+1.62500000E+00,+6.24999E-03,+205.99997E-03
+4.92000E-03,+1.62500000E+00,+6.24999E-03,+205.99997E-03
+4.94000E-03,+1.62500000E+00,-9.37501E-03,+221.62497E-03
+4.96000E-03,+1.62500000E+00,+21.87499E-03,+205.99997E-03
+4.98000E-03,+1.46875000E+00,+6.24999E-03,+205.99997E-03
+5.00000E-03,+1.46875000E+00,-9.37501E-03,+205.99997E-03
+5.02000E-03,+1.31250000E+00,+6.24999E-03,+205.99997E-03
+5.04000E-03,+1.31250000E+00,+6.24999E-03,+205.99997E-03
+5.06000E-03,+1.46875000E+00,+37.49999E-03,+190.37497E-03
+5.08000E-03,+1.15625000E+00,+6.24999E-03,+174.74997E-03
+5.10000E-03,+1.31250000E+00,+6.24999E-03,+190.37497E-03
+5.12000E-03,+1.46875000E+00,+6.24999E-03,+174.74997E-03
+5.14000E-03,+1.46875000E+00,-9.37501E-03,+190.37497E-03
+5.16000E-03,+1.46875000E+00,+6.24999E-03,+190.37497E-03
+5.18000E-03,+1.46875000E+00,+21.87499E-03,+205.99997E-03
+5.20000E-03,+1.15625000E+00,-9.37501E-03,+205.99997E-03
+5.22000E-03,+1.31250000E+00,+6.24999E-03,+190.37497E-03
+5.24000E-03,+1.31250000E+00,+6.24999E-03,+174.74997E-03
+5.26000E-03,+1.46875000E+00,+6.24999E-03,+174.74997E-03
+5.28000E-03,+1.31250000E+00,-9.37501E-03,+174.74997E-03
+5.30000E-03,+1.15625000E+00,+6.24999E-03,+159.12497E-03
+5.32000E-03,+1.31250000E+00,-25.00001E-03,+190.37497E-03
+5.34000E-03,+1.31250000E+00,+21.87499E-03,+174.74997E-03
+5.36000E-03,+1.15625000E+00,+21.87499E-03,+159.12497E-03
+5.38000E-03,+1.15625000E+00,-9.37501E-03,+174.74997E-03
+5.40000E-03,+1.00000000E+00,+21.87499E-03,+143.49997E-03
+5.42000E-03,+1.15625000E+00,+6.24999E-03,+174.74997E-03
+5.44000E-03,+1.31250000E+00,+6.24999E-03,+174.74997E-03
+5.46000E-03,+1.31250000E+00,+21.87499E-03,+174.74997E-03
+5.48000E-03,+1.15625000E+00,-9.37501E-03,+159.12497E-03
+5.50000E-03,+1.31250000E+00,+37.49999E-03,+174.74997E-03
+5.52000E-03,+1.15625000E+00,-25.00001E-03,+174.74997E-03
+5.54000E-03,+1.15625000E+00,+21.87499E-03,+174.74997E-03
+5.56000E-03,+1.15625000E+00,+21.87499E-03,+174.74997E-03
+5.58000E-03,+1.00000000E+00,+21.87499E-03,+159.12497E-03
+5.60000E-03,+1.15625000E+00,+37.49999E-03,+159.12497E-03
+5.62000E-03,+1.31250000E+00,+21.87499E-03,+174.74997E-03
+5.64000E-03,+1.15625000E+00,+21.87499E-03,+159.12497E-03
+5.66000E-03,+1.15625000E+00,+21.87499E-03,+159.12497E-03
+5.68000E-03,+1.15625000E+00,+21.87499E-03,+143.49997E-03
+5.70000E-03,+1.31250000E+00,-9.37501E-03,+159.12497E-03
+5.72000E-03,+1.15625000E+00,+6.24999E-03,+174.74997E-03
+5.74000E-03,+1.15625000E+00,+37.49999E-03,+143.49997E-03
+5.76000E-03,+1.15625000E+00,+6.24999E-03,+143.49997E-03
+5.78000E-03,+1.15625000E+00,-9.37501E-03,+159.12497E-03
+5.80000E-03,+1.15625000E+00,+21.87499E-03,+159.12497E-03
+5.82000E-03,+1.15625000E+00,+21.87499E-03,+159.12497E-03
+5.84000E-03,+1.00000000E+00,+21.87499E-03,+159.12497E-03
+5.86000E-03,+1.31250000E+00,+21.87499E-03,+143.49997E-03
+5.88000E-03,+1.31250000E+00,+6.24999E-03,+159.12497E-03
+5.90000E-03,+1.31250000E+00,+6.24999E-03,+143.49997E-03
+5.92000E-03,+1.00000000E+00,+21.87499E-03,+127.87497E-03
+5.94000E-03,+1.15625000E+00,+37.49999E-03,+159.12497E-03
+5.96000E-03,+1.15625000E+00,+21.87499E-03,+159.12497E-03
+5.98000E-03,+1.15625000E+00,+37.49999E-03,+143.49997E-03
+6.00000E-03,+1.15625000E+00,+6.24999E-03,+159.12497E-03
+6.02000E-03,+1.15625000E+00,-9.37501E-03,+159.12497E-03
+6.04000E-03,+1.00000000E+00,+21.87499E-03,+143.49997E-03
+6.06000E-03,+1.15625000E+00,+6.24999E-03,+159.12497E-03
+6.08000E-03,+1.15625000E+00,+6.24999E-03,+174.74997E-03
+6.10000E-03,+1.31250000E+00,+21.87499E-03,+159.12497E-03
+6.12000E-03,+1.15625000E+00,+6.24999E-03,+143.49997E-03
+6.14000E-03,+1.31250000E+00,-9.37501E-03,+143.49997E-03
+6.16000E-03,+1.15625000E+00,-9.37501E-03,+159.12497E-03
+6.18000E-03,+1.15625000E+00,+6.24999E-03,+143.49997E-03
+6.20000E-03,+1.00000000E+00,+21.87499E-03,+174.74997E-03
+6.22000E-03,+1.15625000E+00,+21.87499E-03,+159.12497E-03
+6.24000E-03,+1.00000000E+00,+6.24999E-03,+143.49997E-03
+6.26000E-03,+1.15625000E+00,+21.87499E-03,+143.49997E-03
+6.28000E-03,+1.00000000E+00,+6.24999E-03,+159.12497E-03
+6.30000E-03,+1.31250000E+00,+6.24999E-03,+190.37497E-03
+6.32000E-03,+1.00000000E+00,-9.37501E-03,+159.12497E-03
+6.34000E-03,+1.15625000E+00,-9.37501E-03,+159.12497E-03
+6.36000E-03,+1.15625000E+00,+6.24999E-03,+159.12497E-03
+6.38000E-03,+1.00000000E+00,-9.37501E-03,+143.49997E-03
+6.40000E-03,+1.15625000E+00,+6.24999E-03,+159.12497E-03
+6.42000E-03,+1.15625000E+00,+21.87499E-03,+143.49997E-03
+6.44000E-03,+1.15625000E+00,-9.37501E-03,+159.12497E-03
+6.46000E-03,+1.31250000E+00,-9.37501E-03,+159.12497E-03
+6.48000E-03,+843.75000E-03,+6.24999E-03,+159.12497E-03
+6.50000E-03,+1.00000000E+00,-25.00001E-03,+112.24997E-03
+6.52000E-03,+1.15625000E+00,-9.37501E-03,+159.12497E-03
+6.54000E-03,+1.00000000E+00,-9.37501E-03,+143.49997E-03
+6.56000E-03,+1.31250000E+00,-25.00001E-03,+143.49997E-03
+6.58000E-03,+1.15625000E+00,-9.37501E-03,+174.74997E-03
+6.60000E-03,+1.15625000E+00,+6.24999E-03,+143.49997E-03
+6.62000E-03,+1.15625000E+00,+6.24999E-03,+159.12497E-03
+6.64000E-03,+1.15625000E+00,-9.37501E-03,+174.74997E-03
+6.66000E-03,+1.15625000E+00,-9.37501E-03,+143.49997E-03
+6.68000E-03,+1.15625000E+00,+6.24999E-03,+127.87497E-03
+6.70000E-03,+1.00000000E+00,+6.24999E-03,+127.87497E-03
+6.72000E-03,+1.15625000E+00,+6.24999E-03,+143.49997E-03
+6.74000E-03,+1.00000000E+00,-40.62501E-03,+143.49997E-03
+6.76000E-03,+843.75000E-03,-9.37501E-03,+143.49997E-03
+6.78000E-03,+1.00000000E+00,-25.00001E-03,+127.87497E-03
+6.80000E-03,+843.75000E-03,+6.24999E-03,+127.87497E-03
+6.82000E-03,+843.75000E-03,-9.37501E-03,+127.87497E-03
+6.84000E-03,+1.15625000E+00,-9.37501E-03,+159.12497E-03
+6.86000E-03,+843.75000E-03,-9.37501E-03,+127.87497E-03
+6.88000E-03,+1.00000000E+00,-9.37501E-03,+127.87497E-03
+6.90000E-03,+1.15625000E+00,+6.24999E-03,+127.87497E-03
+6.92000E-03,+1.00000000E+00,-9.37501E-03,+112.24997E-03
+6.94000E-03,+1.15625000E+00,-9.37501E-03,+127.87497E-03
+6.96000E-03,+1.00000000E+00,-9.37501E-03,+127.87497E-03
+6.98000E-03,+843.75000E-03,-9.37501E-03,+112.24997E-03
+7.00000E-03,+843.75000E-03,-40.62501E-03,+143.49997E-03
+7.02000E-03,+843.75000E-03,-25.00001E-03,+112.24997E-03
+7.04000E-03,+1.00000000E+00,-25.00001E-03,+127.87497E-03
+7.06000E-03,+1.00000000E+00,-9.37501E-03,+143.49997E-03
+7.08000E-03,+1.00000000E+00,-9.37501E-03,+127.87497E-03
+7.10000E-03,+1.00000000E+00,-9.37501E-03,+112.24997E-03
+7.12000E-03,+1.00000000E+00,-25.00001E-03,+127.87497E-03
+7.14000E-03,+1.15625000E+00,-9.37501E-03,+143.49997E-03
+7.16000E-03,+843.75000E-03,-25.00001E-03,+112.24997E-03
+7.18000E-03,+843.75000E-03,+6.24999E-03,+112.24997E-03
+7.20000E-03,+843.75000E-03,+6.24999E-03,+112.24997E-03
+7.22000E-03,+843.75000E-03,-25.00001E-03,+112.24997E-03
+7.24000E-03,+843.75000E-03,-25.00001E-03,+127.87497E-03
+7.26000E-03,+1.00000000E+00,-40.62501E-03,+127.87497E-03
+7.28000E-03,+843.75000E-03,-9.37501E-03,+127.87497E-03
+7.30000E-03,+843.75000E-03,-9.37501E-03,+112.24997E-03
+7.32000E-03,+1.00000000E+00,-25.00001E-03,+159.12497E-03
+7.34000E-03,+1.00000000E+00,-9.37501E-03,+127.87497E-03
+7.36000E-03,+843.75000E-03,-25.00001E-03,+112.24997E-03
+7.38000E-03,+1.00000000E+00,-9.37501E-03,+112.24997E-03
+7.40000E-03,+843.75000E-03,-25.00001E-03,+112.24997E-03
+7.42000E-03,+843.75000E-03,-40.62501E-03,+112.24997E-03
+7.44000E-03,+1.00000000E+00,-25.00001E-03,+112.24997E-03
+7.46000E-03,+1.00000000E+00,-25.00001E-03,+112.24997E-03
+7.48000E-03,+843.75000E-03,-9.37501E-03,+112.24997E-03
+7.50000E-03,+843.75000E-03,-9.37501E-03,+112.24997E-03
+7.52000E-03,+843.75000E-03,-9.37501E-03,+112.24997E-03
+7.54000E-03,+843.75000E-03,-25.00001E-03,+112.24997E-03
+7.56000E-03,+843.75000E-03,-25.00001E-03,+96.62497E-03
+7.58000E-03,+843.75000E-03,-9.37501E-03,+96.62497E-03
+7.60000E-03,+843.75000E-03,-9.37501E-03,+112.24997E-03
+7.62000E-03,+1.00000000E+00,-9.37501E-03,+127.87497E-03
+7.64000E-03,+1.00000000E+00,+6.24999E-03,+112.24997E-03
+7.66000E-03,+687.50000E-03,-25.00001E-03,+112.24997E-03
+7.68000E-03,+843.75000E-03,-9.37501E-03,+96.62497E-03
+7.70000E-03,+1.00000000E+00,-9.37501E-03,+112.24997E-03
+7.72000E-03,+687.50000E-03,-25.00001E-03,+96.62497E-03
+7.74000E-03,+687.50000E-03,-40.62501E-03,+112.24997E-03
+7.76000E-03,+687.50000E-03,-25.00001E-03,+96.62497E-03
+7.78000E-03,+843.75000E-03,-9.37501E-03,+96.62497E-03
+7.80000E-03,+687.50000E-03,+6.24999E-03,+80.99997E-03
+7.82000E-03,+687.50000E-03,-9.37501E-03,+112.24997E-03
+7.84000E-03,+843.75000E-03,-9.37501E-03,+96.62497E-03
+7.86000E-03,+687.50000E-03,-9.37501E-03,+96.62497E-03
+7.88000E-03,+687.50000E-03,-9.37501E-03,+80.99997E-03
+7.90000E-03,+843.75000E-03,-25.00001E-03,+96.62497E-03
+7.92000E-03,+687.50000E-03,-25.00001E-03,+96.62497E-03
+7.94000E-03,+687.50000E-03,-9.37501E-03,+96.62497E-03
+7.96000E-03,+843.75000E-03,-9.37501E-03,+96.62497E-03
+7.98000E-03,+843.75000E-03,-9.37501E-03,+112.24997E-03
+8.00000E-03,+843.75000E-03,-25.00001E-03,+80.99997E-03
+8.02000E-03,+843.75000E-03,-25.00001E-03,+112.24997E-03
+8.04000E-03,+843.75000E-03,-25.00001E-03,+112.24997E-03
+8.06000E-03,+843.75000E-03,-9.37501E-03,+96.62497E-03
+8.08000E-03,+687.50000E-03,-9.37501E-03,+112.24997E-03
+8.10000E-03,+687.50000E-03,+6.24999E-03,+112.24997E-03
+8.12000E-03,+687.50000E-03,-25.00001E-03,+80.99997E-03
+8.14000E-03,+843.75000E-03,-25.00001E-03,+112.24997E-03
+8.16000E-03,+375.00000E-03,-9.37501E-03,+80.99997E-03
+8.18000E-03,+687.50000E-03,-9.37501E-03,+96.62497E-03
+8.20000E-03,+687.50000E-03,-25.00001E-03,+96.62497E-03
+8.22000E-03,+531.25000E-03,-9.37501E-03,+80.99997E-03
+8.24000E-03,+687.50000E-03,-9.37501E-03,+112.24997E-03
+8.26000E-03,+687.50000E-03,+6.24999E-03,+80.99997E-03
+8.28000E-03,+531.25000E-03,-9.37501E-03,+96.62497E-03
+8.30000E-03,+687.50000E-03,-9.37501E-03,+96.62497E-03
+8.32000E-03,+687.50000E-03,-25.00001E-03,+80.99997E-03
+8.34000E-03,+687.50000E-03,-25.00001E-03,+80.99997E-03
+8.36000E-03,+843.75000E-03,-25.00001E-03,+80.99997E-03
+8.38000E-03,+531.25000E-03,-9.37501E-03,+96.62497E-03
+8.40000E-03,+687.50000E-03,-25.00001E-03,+80.99997E-03
+8.42000E-03,+843.75000E-03,-9.37501E-03,+80.99997E-03
+8.44000E-03,+687.50000E-03,-9.37501E-03,+96.62497E-03
+8.46000E-03,+843.75000E-03,-25.00001E-03,+80.99997E-03
+8.48000E-03,+531.25000E-03,-25.00001E-03,+80.99997E-03
+8.50000E-03,+843.75000E-03,-9.37501E-03,+80.99997E-03
+8.52000E-03,+531.25000E-03,-25.00001E-03,+80.99997E-03
+8.54000E-03,+687.50000E-03,-25.00001E-03,+80.99997E-03
+8.56000E-03,+687.50000E-03,-25.00001E-03,+80.99997E-03
+8.58000E-03,+531.25000E-03,-9.37501E-03,+80.99997E-03
+8.60000E-03,+687.50000E-03,-9.37501E-03,+80.99997E-03
+8.62000E-03,+531.25000E-03,+6.24999E-03,+96.62497E-03
+8.64000E-03,+843.75000E-03,-25.00001E-03,+96.62497E-03
+8.66000E-03,+687.50000E-03,-9.37501E-03,+80.99997E-03
+8.68000E-03,+531.25000E-03,-25.00001E-03,+96.62497E-03
+8.70000E-03,+531.25000E-03,-9.37501E-03,+80.99997E-03
+8.72000E-03,+687.50000E-03,-25.00001E-03,+80.99997E-03
+8.74000E-03,+687.50000E-03,-9.37501E-03,+80.99997E-03
+8.76000E-03,+687.50000E-03,-9.37501E-03,+96.62497E-03
+8.78000E-03,+687.50000E-03,+6.24999E-03,+80.99997E-03
+8.80000E-03,+687.50000E-03,+6.24999E-03,+80.99997E-03
+8.82000E-03,+531.25000E-03,+6.24999E-03,+80.99997E-03
+8.84000E-03,+531.25000E-03,+6.24999E-03,+80.99997E-03
+8.86000E-03,+375.00000E-03,-25.00001E-03,+65.37497E-03
+8.88000E-03,+531.25000E-03,+6.24999E-03,+80.99997E-03
+8.90000E-03,+531.25000E-03,+6.24999E-03,+80.99997E-03
+8.92000E-03,+687.50000E-03,-9.37501E-03,+65.37497E-03
+8.94000E-03,+531.25000E-03,-9.37501E-03,+65.37497E-03
+8.96000E-03,+687.50000E-03,+6.24999E-03,+80.99997E-03
+8.98000E-03,+687.50000E-03,-9.37501E-03,+80.99997E-03
+9.00000E-03,+531.25000E-03,-9.37501E-03,+80.99997E-03
+9.02000E-03,+687.50000E-03,+6.24999E-03,+80.99997E-03
+9.04000E-03,+687.50000E-03,-9.37501E-03,+96.62497E-03
+9.06000E-03,+531.25000E-03,-9.37501E-03,+80.99997E-03
+9.08000E-03,+843.75000E-03,+6.24999E-03,+80.99997E-03
+9.10000E-03,+531.25000E-03,-9.37501E-03,+80.99997E-03
+9.12000E-03,+843.75000E-03,+6.24999E-03,+112.24997E-03
+9.14000E-03,+687.50000E-03,+6.24999E-03,+96.62497E-03
+9.16000E-03,+687.50000E-03,-25.00001E-03,+80.99997E-03
+9.18000E-03,+687.50000E-03,+6.24999E-03,+96.62497E-03
+9.20000E-03,+687.50000E-03,+6.24999E-03,+96.62497E-03
+9.22000E-03,+687.50000E-03,+6.24999E-03,+96.62497E-03
+9.24000E-03,+531.25000E-03,-9.37501E-03,+80.99997E-03
+9.26000E-03,+843.75000E-03,+6.24999E-03,+65.37497E-03
+9.28000E-03,+531.25000E-03,+21.87499E-03,+65.37497E-03
+9.30000E-03,+531.25000E-03,-9.37501E-03,+65.37497E-03
+9.32000E-03,+531.25000E-03,-9.37501E-03,+65.37497E-03
+9.34000E-03,+531.25000E-03,-9.37501E-03,+80.99997E-03
+9.36000E-03,+531.25000E-03,-9.37501E-03,+65.37497E-03
+9.38000E-03,+531.25000E-03,-25.00001E-03,+80.99997E-03
+9.40000E-03,+687.50000E-03,-9.37501E-03,+80.99997E-03
+9.42000E-03,+687.50000E-03,+6.24999E-03,+96.62497E-03
+9.44000E-03,+687.50000E-03,+6.24999E-03,+80.99997E-03
+9.46000E-03,+531.25000E-03,-25.00001E-03,+80.99997E-03
+9.48000E-03,+531.25000E-03,-40.62501E-03,+80.99997E-03
+9.50000E-03,+843.75000E-03,-9.37501E-03,+96.62497E-03
+9.52000E-03,+687.50000E-03,-25.00001E-03,+80.99997E-03
+9.54000E-03,+531.25000E-03,+6.24999E-03,+80.99997E-03
+9.56000E-03,+687.50000E-03,-25.00001E-03,+96.62497E-03
+9.58000E-03,+687.50000E-03,+6.24999E-03,+80.99997E-03
+9.60000E-03,+531.25000E-03,+6.24999E-03,+96.62497E-03
+9.62000E-03,+687.50000E-03,-9.37501E-03,+96.62497E-03
+9.64000E-03,+843.75000E-03,+6.24999E-03,+96.62497E-03
+9.66000E-03,+531.25000E-03,-9.37501E-03,+80.99997E-03
+9.68000E-03,+531.25000E-03,-40.62501E-03,+96.62497E-03
+9.70000E-03,+531.25000E-03,-25.00001E-03,+80.99997E-03
+9.72000E-03,+531.25000E-03,-25.00001E-03,+80.99997E-03
+9.74000E-03,+687.50000E-03,-25.00001E-03,+80.99997E-03
+9.76000E-03,+531.25000E-03,-9.37501E-03,+96.62497E-03
+9.78000E-03,+843.75000E-03,-9.37501E-03,+96.62497E-03
+9.80000E-03,+687.50000E-03,-9.37501E-03,+96.62497E-03
+9.82000E-03,+843.75000E-03,-9.37501E-03,+96.62497E-03
+9.84000E-03,+687.50000E-03,-9.37501E-03,+96.62497E-03
+9.86000E-03,+531.25000E-03,-9.37501E-03,+80.99997E-03
+9.88000E-03,+687.50000E-03,-25.00001E-03,+80.99997E-03
+9.90000E-03,+531.25000E-03,-25.00001E-03,+80.99997E-03
+9.92000E-03,+687.50000E-03,-25.00001E-03,+96.62497E-03
+9.94000E-03,+531.25000E-03,-9.37501E-03,+80.99997E-03
+9.96000E-03,+687.50000E-03,-25.00001E-03,+80.99997E-03
+9.98000E-03,+531.25000E-03,-25.00001E-03,+65.37497E-03
